{
	"info": {
		"_postman_id": "c3726927-7170-4683-9daa-7bbfa333fe30",
		"name": "OneTimePayment",
		"schema": "https://schema.getpostman.com/json/collection/v2.1.0/collection.json"
	},
	"item": [
		{
			"name": "SubmitOneTimePayment",
			"item": [
				{
					"name": "WN20-6073 - Auto API  - OneTimePayment_NewBankAccountInformation_EndtoEndValidation_Data",
					"event": [
						{
							"listen": "test",
							"script": {
								"id": "e9a1b6d4-3407-47cb-bf63-d173296e0d09",
								"exec": [
									"        var jsonData = pm.response.json();\r",
									"\t\t//read response jsonData and update the environment variables\r",
									"\t\tpm.environment.set(\"accountNumber\", jsonData.ACCT_ID);\r",
									"\t\tpm.environment.set(\"SSN\",jsonData.LAST4);\r",
									"\r",
									"\t\t//proceed to register the account\r",
									"\t\t//note: Below statement will execute only when run from Collection Runner.\r",
									"\t\tpostman.setNextRequest(\"RegisterAccount\");\t"
								],
								"type": "text/javascript"
							}
						},
						{
							"listen": "prerequest",
							"script": {
								"id": "901776aa-06ac-4b0e-b0a3-94c7544a0f15",
								"exec": [
									"//Call test case name function\r",
									"let utils = eval(environment.utils)();\r",
									"utils.myPackage.getTestCaseName(); \r",
									"\r",
									"//initializeIterations\r",
									"utils.myPackage.initializeIterations();"
								],
								"type": "text/javascript"
							}
						}
					],
					"protocolProfileBehavior": {
						"disableBodyPruning": true
					},
					"request": {
						"method": "GET",
						"header": [],
						"body": {
							"mode": "formdata",
							"formdata": [],
							"options": {
								"formdata": {}
							}
						},
						"url": {
							"raw": "http://10.69.64.35/api/account/getAccountWithCurrentBalance",
							"protocol": "http",
							"host": [
								"10",
								"69",
								"64",
								"35"
							],
							"path": [
								"api",
								"account",
								"getAccountWithCurrentBalance"
							]
						}
					},
					"response": []
				},
				{
					"name": "WN20-6073 - Auto API - OneTimePayment_NewBankAccountInformation_EndtoEndValidation",
					"event": [
						{
							"listen": "test",
							"script": {
								"id": "d44150f9-6d89-48d9-b1e7-f4a9efa4513b",
								"exec": [
									"var jsonData = pm.response.json();\r",
									"pm.test(\"Verify that the bill payment is successful\",function(){\r",
									"    pm.expect(jsonData.data.submitOnetimePayment.success).to.equal(true);\r",
									"});\r",
									"pm.test(\"Verify that the confirmation number is returned\", function () {\r",
									"    pm.expect(jsonData.data.submitOnetimePayment.confirmationNumber).to.not.eql(0);\r",
									"});"
								],
								"type": "text/javascript"
							}
						},
						{
							"listen": "prerequest",
							"script": {
								"id": "d59438e8-4449-43fb-afd1-0d1007cffd87",
								"exec": [
									"var paymentDate = new Date();\r",
									"var dd = String(paymentDate.getDate()).padStart(2, '0');\r",
									"var mm = String(paymentDate.getMonth() + 1).padStart(2, '0'); \r",
									"var yyyy = paymentDate.getFullYear();\r",
									"\r",
									"paymentDate = mm + '/' + dd + '/' + yyyy;\r",
									"pm.environment.set(\"paymentDate\",paymentDate);"
								],
								"type": "text/javascript"
							}
						}
					],
					"request": {
						"auth": {
							"type": "bearer",
							"bearer": [
								{
									"key": "token",
									"value": "{{accessToken}}",
									"type": "string"
								}
							]
						},
						"method": "POST",
						"header": [],
						"body": {
							"mode": "raw",
							"raw": "{\r\n\"operationName\":\"submitOnetimePayment\",\r\n   \"variables\":{\r\n      \"payload\":{\r\n         \"paymentDate\":\"{{paymentDate}}\",\r\n         \"paymentAmount\":1.00,\r\n         \"encryptedPersonId\":\"{{encryptedPersonId}}\",\r\n         \"encryptedAccountNumber\":\"{{encrypted_accountnumber}}\",\r\n         \"serviceAddressLineOne\":\"{{serviceAddressLineOne}}\",\r\n         \"serviceAddressLineTwo\":null,\r\n         \"amountDue\":{{amountDue}},\r\n         \"customerName\":\"{{mainCustomerName}}\",\r\n         \"saveBankInfo\":false,\r\n         \"emailAddress\":\"{{emailAddress}}\",\r\n         \"useSavedBankInfo\":false,\r\n         \"savedBankInfo\":null,\r\n         \"newBankInfo\":{\r\n            \"bankAccountNumber\":\"1234567890\",\r\n            \"bankRoutingNumber\":\"{{routingNumber}}\"\r\n         }\r\n      }\r\n   },\r\n   \"query\":\"mutation submitOnetimePayment($payload: OnetimePaymentRequest) {\\n  submitOnetimePayment(payload: $payload) {\\n    success\\n    confirmationNumber\\n    __typename\\n  }\\n}\\n\"\r\n}",
							"options": {
								"raw": {
									"language": "json"
								}
							}
						},
						"url": {
							"raw": "https://pge-nonprod-{{graphQLEnv}}.apigee.net/pge-graphql",
							"protocol": "https",
							"host": [
								"pge-nonprod-{{graphQLEnv}}",
								"apigee",
								"net"
							],
							"path": [
								"pge-graphql"
							]
						}
					},
					"response": []
				},
				{
					"name": "WN20-6074 - Auto API -  OneTimePayment_SuccessValidation_GreaterThan3Days",
					"event": [
						{
							"listen": "test",
							"script": {
								"id": "11f3ce7a-6daa-4601-bae9-61a234bdfcdf",
								"exec": [
									"var jsonData = pm.response.json();\r",
									"pm.test(\"Verify that the bill payment is successful\",function(){\r",
									"    pm.expect(jsonData.data.submitOnetimePayment.success).to.equal(true);\r",
									"});\r",
									"pm.test(\"Verify that the confirmation number is returned\", function () {\r",
									"    pm.expect(jsonData.data.submitOnetimePayment.confirmationNumber).to.not.eql(0);\r",
									"});\r",
									"\r",
									"postman.setNextRequest(null);"
								],
								"type": "text/javascript"
							}
						},
						{
							"listen": "prerequest",
							"script": {
								"id": "39cbb747-dce1-4d0d-ae37-7354d16c99bb",
								"exec": [
									"var paymentDate = new Date();\r",
									"var dd = String(paymentDate.getDate()+4).padStart(2, '0');\r",
									"var mm = String(paymentDate.getMonth() + 1).padStart(2, '0'); \r",
									"var yyyy = paymentDate.getFullYear();\r",
									"\r",
									"paymentDate = mm + '/' + dd + '/' + yyyy;\r",
									"pm.environment.set(\"paymentDate\",paymentDate);"
								],
								"type": "text/javascript"
							}
						}
					],
					"request": {
						"auth": {
							"type": "bearer",
							"bearer": [
								{
									"key": "token",
									"value": "{{accessToken}}",
									"type": "string"
								}
							]
						},
						"method": "POST",
						"header": [],
						"body": {
							"mode": "raw",
							"raw": "{\r\n\"operationName\":\"submitOnetimePayment\",\r\n   \"variables\":{\r\n      \"payload\":{\r\n         \"paymentDate\":\"{{paymentDate}}\",\r\n         \"paymentAmount\":1.00,\r\n         \"encryptedPersonId\":\"{{encryptedPersonId}}\",\r\n         \"encryptedAccountNumber\":\"{{encrypted_accountnumber}}\",\r\n         \"serviceAddressLineOne\":\"{{serviceAddressLineOne}}\",\r\n         \"serviceAddressLineTwo\":null,\r\n         \"amountDue\":{{amountDue}},\r\n         \"customerName\":\"{{mainCustomerName}}\",\r\n         \"saveBankInfo\":false,\r\n         \"emailAddress\":\"{{emailAddress}}\",\r\n         \"useSavedBankInfo\":false,\r\n         \"savedBankInfo\":null,\r\n         \"newBankInfo\":{\r\n            \"bankAccountNumber\":\"1234567890\",\r\n            \"bankRoutingNumber\":\"{{routingNumber}}\"\r\n         }\r\n      }\r\n   },\r\n   \"query\":\"mutation submitOnetimePayment($payload: OnetimePaymentRequest) {\\n  submitOnetimePayment(payload: $payload) {\\n    success\\n    confirmationNumber\\n    __typename\\n  }\\n}\\n\"\r\n}",
							"options": {
								"raw": {
									"language": "json"
								}
							}
						},
						"url": {
							"raw": "https://pge-nonprod-{{graphQLEnv}}.apigee.net/pge-graphql",
							"protocol": "https",
							"host": [
								"pge-nonprod-{{graphQLEnv}}",
								"apigee",
								"net"
							],
							"path": [
								"pge-graphql"
							]
						}
					},
					"response": []
				},
				{
					"name": "RegisterAccount",
					"event": [
						{
							"listen": "test",
							"script": {
								"id": "03c32fd6-8301-4171-98af-9aa458694437",
								"exec": [
									"postman.setNextRequest(\"FireBaseSignIn\");"
								],
								"type": "text/javascript"
							}
						},
						{
							"listen": "prerequest",
							"script": {
								"id": "fb3d3f2e-f56c-4873-8519-d88080c20647",
								"exec": [
									"//Create an Email ID for Residential registration\r",
									"let utils = eval(environment.utils)();\r",
									"utils.myPackage.createResidentialEmailID();\r",
									"\r",
									"postman.setNextRequest(\"FireBaseSignIn\");"
								],
								"type": "text/javascript"
							}
						}
					],
					"request": {
						"method": "POST",
						"header": [],
						"body": {
							"mode": "graphql",
							"graphql": {
								"query": "mutation registerResidential($payload: ResidentialRegistrationRequest!) {\r\n      registerResidential(payload: $payload) {\r\n        success\r\n        uid\r\n      }\r\n    }",
								"variables": "{\r\n  \"payload\": {\r\n    \"AccountNumber\": \"{{accountNumber}}\",\r\n    \"EmailAddress\": \"{{emailAddress}}\",\r\n    \"Password\": \"Password1\",\r\n    \"PhoneNumber\": \"\",\r\n    \"Last4DigitsOfSSN\": \"{{SSN}}\",\r\n    \"Last4DigitsOfDriversLicenseOrStateId\": \"\",\r\n    \"PinCode\": \"\",\r\n    \"IsPaperlessBillingSelected\": true\r\n  }\r\n}"
							},
							"options": {
								"graphql": {}
							}
						},
						"url": {
							"raw": "https://pge-nonprod-{{graphQLEnv}}.apigee.net/pge-graphql",
							"protocol": "https",
							"host": [
								"pge-nonprod-{{graphQLEnv}}",
								"apigee",
								"net"
							],
							"path": [
								"pge-graphql"
							]
						}
					},
					"response": []
				},
				{
					"name": "FireBaseSignIn",
					"event": [
						{
							"listen": "test",
							"script": {
								"id": "49ca2012-0532-43f3-b29b-81ab32ba5c3b",
								"exec": [
									"var jsonData = JSON.parse(responseBody);",
									"pm.test(\"Verify Registered status is True\", function () {",
									"    pm.expect(jsonData.registered).to.eql(true);",
									"});",
									"",
									"postman.setEnvironmentVariable(\"idToken\", jsonData.idToken);",
									"",
									"postman.setNextRequest(\"Apigee Proxy\");"
								],
								"type": "text/javascript"
							}
						}
					],
					"request": {
						"method": "POST",
						"header": [],
						"body": {
							"mode": "raw",
							"raw": "{\r\n    \"email\": \"{{emailAddress}}\",\r\n    \"password\": \"Password1\",\r\n    \"returnSecureToken\": true\r\n}",
							"options": {
								"raw": {
									"language": "json"
								}
							}
						},
						"url": {
							"raw": "https://identitytoolkit.googleapis.com/v1/accounts:signInWithPassword?key={{apiKey}}",
							"protocol": "https",
							"host": [
								"identitytoolkit",
								"googleapis",
								"com"
							],
							"path": [
								"v1",
								"accounts:signInWithPassword"
							],
							"query": [
								{
									"key": "key",
									"value": "{{apiKey}}"
								}
							]
						}
					},
					"response": []
				},
				{
					"name": "Apigee Proxy",
					"event": [
						{
							"listen": "test",
							"script": {
								"id": "5d016110-9b91-4705-97fd-88c7ad093554",
								"exec": [
									"var jsonData = JSON.parse(responseBody);\r",
									"postman.setEnvironmentVariable(\"accessToken\", jsonData.access_token);\r",
									"\r",
									"postman.setNextRequest(\"GetAccountInfo\");"
								],
								"type": "text/javascript"
							}
						}
					],
					"request": {
						"method": "POST",
						"header": [
							{
								"key": "client_id",
								"type": "text",
								"value": "hAAyoQ0i6rgQKSoLhLsbWT9yyrKWdMyi",
								"disabled": true
							},
							{
								"key": "idp_access_token",
								"type": "text",
								"value": "{{idToken}}"
							}
						],
						"url": {
							"raw": "https://pge-nonprod-{{graphQLEnv}}.apigee.net/pg-token-implicit/token?client_id=hAAyoQ0i6rgQKSoLhLsbWT9yyrKWdMyi&response_type=token&redirect_uri=https://httpbin.org",
							"protocol": "https",
							"host": [
								"pge-nonprod-{{graphQLEnv}}",
								"apigee",
								"net"
							],
							"path": [
								"pg-token-implicit",
								"token"
							],
							"query": [
								{
									"key": "client_id",
									"value": "hAAyoQ0i6rgQKSoLhLsbWT9yyrKWdMyi"
								},
								{
									"key": "response_type",
									"value": "token"
								},
								{
									"key": "redirect_uri",
									"value": "https://httpbin.org"
								}
							]
						}
					},
					"response": []
				},
				{
					"name": "GetAccountInfo",
					"event": [
						{
							"listen": "test",
							"script": {
								"id": "871a4f61-cc1a-49ca-93e5-e3892781ffb9",
								"exec": [
									"var jsonData = pm.response.json();\r",
									"encryptedPersonId = jsonData.data.getAccountInfo.encryptedPersonId;\r",
									"pm.environment.set(\"encryptedPersonId\", encryptedPersonId);\r",
									"encryptedAccountNumber = jsonData.data.getAccountInfo.groups[1].defaultAccount.encryptedAccountNumber\r",
									"pm.environment.set(\"encrypted_accountnumber\", encryptedAccountNumber);\r",
									"accountNumber = jsonData.data.getAccountInfo.groups[1].defaultAccount.accountNumber;\r",
									"pm.environment.set(\"accountNumber\",accountNumber);\r",
									"\r",
									"postman.setNextRequest(\"GetAccountDetails\");"
								],
								"type": "text/javascript"
							}
						}
					],
					"request": {
						"auth": {
							"type": "bearer",
							"bearer": [
								{
									"key": "token",
									"value": "{{accessToken}}",
									"type": "string"
								}
							]
						},
						"method": "POST",
						"header": [],
						"body": {
							"mode": "raw",
							"raw": "{\r\n    \"operationName\": \"getAccountInfo\",\r\n    \"variables\": {},\r\n    \"query\": \"query getAccountInfo {\\n  getAccountInfo {\\n    uid\\n    language\\n    email\\n    personName\\n    personId\\n    timestamp\\n    encryptedPersonId\\n    totalAccounts\\n    groups {\\n      groupName\\n      groupId\\n      groupCode\\n      numberOfAccounts\\n      isDefault\\n      type\\n      isDefaultAccountExists\\n      isLoggedOnUserAutoGroup\\n      defaultAccount {\\n        accountNumber\\n        encryptedAccountNumber\\n        encryptedPersonId\\n        __typename\\n      }\\n      __typename\\n    }\\n    __typename\\n  }\\n}\\n\"\r\n}",
							"options": {
								"raw": {
									"language": "json"
								}
							}
						},
						"url": {
							"raw": "https://pge-nonprod-{{graphQLEnv}}.apigee.net/pge-graphql",
							"protocol": "https",
							"host": [
								"pge-nonprod-{{graphQLEnv}}",
								"apigee",
								"net"
							],
							"path": [
								"pge-graphql"
							]
						}
					},
					"response": []
				},
				{
					"name": "GetAccountDetails",
					"event": [
						{
							"listen": "test",
							"script": {
								"id": "8e5073a0-1668-4964-a3bf-a9c0ff834450",
								"exec": [
									"var jsonData = pm.response.json();\r",
									"encryptedPersonId = jsonData.data.getAccountDetails[0].encryptedPersonId;\r",
									"pm.environment.set(\"encryptedPersonId\", encryptedPersonId);\r",
									"accountNumber = jsonData.data.getAccountDetails[0].accountNumber;\r",
									"pm.environment.set(\"accountNumber\",accountNumber);\r",
									"\r",
									"mainCustomerName = jsonData.data.getAccountDetails[0].mainCustomerName\r",
									"pm.environment.set(\"personName\",mainCustomerName);\r",
									"\r",
									"serviceAddressLineOne = jsonData.data.getAccountDetails[0].serviceAddresses[0].addressLine1;\r",
									"pm.environment.set(\"serviceAddressLineOne\",serviceAddressLineOne);\r",
									"\r",
									"amountDue = jsonData.data.getAccountDetails[0].billInfo.amountDue;\r",
									"pm.environment.set(\"amountDue\",amountDue);\r",
									"\r",
									"//Logic to return to the correct test scenario execution.\r",
									"postman.setNextRequest(\"WN20-6073 - Auto API - OneTimePayment_NewBankAccountInformation_EndtoEndValidation\");"
								],
								"type": "text/javascript"
							}
						}
					],
					"request": {
						"auth": {
							"type": "bearer",
							"bearer": [
								{
									"key": "token",
									"value": "{{accessToken}}",
									"type": "string"
								}
							]
						},
						"method": "POST",
						"header": [],
						"body": {
							"mode": "graphql",
							"graphql": {
								"query": "query getAccountDetails($params: AccountDetailParams!) {\r\n  getAccountDetails(params: $params) {\r\n    accountNumber\r\n    encryptedPersonId\r\n    description\r\n    isDefault\r\n    accountType\r\n    relationType\r\n    mainCustomerName\r\n    coCustomerNames\r\n    mailingAddress {\r\n      addressLine1\r\n      city\r\n      state\r\n      postal\r\n    }\r\n    serviceAddresses {\r\n      addressLine1\r\n      city\r\n      state\r\n      postal\r\n    }\r\n    isActive\r\n    billInfo {\r\n      amountDue\r\n      dueDate\r\n      lastPaymentDate\r\n      isAccountPayable\r\n      isNewAccount\r\n      oneTimeFuturePaymentScheduled\r\n      multipleFuturePaymentsScheduled\r\n      enrolledInTPA\r\n    }\r\n    paymentEligibility {\r\n      autoPay {\r\n        autoPayId\r\n        autoPaySource\r\n      }\r\n    }\r\n    preferredDueDateInfo {\r\n      preferredDueDate\r\n      status\r\n      effectiveDate\r\n    }\r\n    autopaySameDayEnrolled {\r\n      startDate\r\n      autoPaySource\r\n    }\r\n    isPaperlessBillEnrolled {\r\n      result\r\n    }\r\n    equalpay {\r\n      paymentPlanType\r\n    }\r\n    peaktimeRebate {\r\n      hasActiveSA\r\n      peakTimeRebateEnrollmentStatus\r\n      hasRebates\r\n    }\r\n    renewableEnrollment {\r\n      renewableEnrollmentStatus\r\n    }\r\n    pendingDisconnect {\r\n      isPendingDisconnect\r\n    }\r\n  }\r\n}",
								"variables": "{\r\n  \"params\": {\r\n    \"accountNumberList\":[\r\n      {\r\n        \"accountNumber\":\"{{accountNumber}}\",\r\n        \"encryptedPersonId\":\"{{encryptedPersonId}}\"\r\n      }\r\n    ]\r\n  }\r\n}"
							},
							"options": {
								"raw": {
									"language": "json"
								}
							}
						},
						"url": {
							"raw": "https://pge-nonprod-{{graphQLEnv}}.apigee.net/pge-graphql",
							"protocol": "https",
							"host": [
								"pge-nonprod-{{graphQLEnv}}",
								"apigee",
								"net"
							],
							"path": [
								"pge-graphql"
							]
						}
					},
					"response": []
				}
			],
			"event": [
				{
					"listen": "prerequest",
					"script": {
						"id": "4600da85-8d92-4aac-a159-a6e60e805f58",
						"type": "text/javascript",
						"exec": [
							""
						]
					}
				},
				{
					"listen": "test",
					"script": {
						"id": "2b60f423-5f4b-4a50-b779-6f55a3f817a9",
						"type": "text/javascript",
						"exec": [
							""
						]
					}
				}
			],
			"protocolProfileBehavior": {}
		}
	],
	"event": [
		{
			"listen": "prerequest",
			"script": {
				"id": "27ff941b-c4b6-4e4f-ab83-af52106d437a",
				"type": "text/javascript",
				"exec": [
					"/*function library to be used in postman API Automation*/",
					"",
					"postman.setEnvironmentVariable(\"utils\", () => {",
					"\t/*Function: getTestCaseName",
					"\t  Created by: Velayutham Rajendran",
					"\t  Date: 09/22/2020",
					"\t  This function is to read test case name, and ",
					"\t  This is used on TestDataPrep requests to set the collection runner to execute the next relevant test.*/",
					"    var getTestCaseName = () => {",
					"        testCaseName = request.name; \t\t",
					"\t\ttestCaseName = testCaseName.slice(0,-5); \t\t",
					"\t\tpm.environment.set(\"testCaseName\",testCaseName)",
					"    }",
					"\t/*Function: getUnregisteredCommercialAccount",
					"\t  Created by: Velayutham Rajendran",
					"\t  Date: 09/22/2020",
					"\t  This function is to read unregistered commercial account test data from response body and update the environment variables. */",
					"    var getUnregisteredCommercialAccount = () => {",
					"        var jsonData = pm.response.json();",
					"\t\t//read response jsonData and update the environment variables",
					"\t\tpm.environment.set(\"accountNumber\", jsonData.AccountNumber);",
					"\t\tpm.environment.set(\"phoneNumber\",jsonData.PhoneNumber);",
					"\t\tpm.environment.set(\"EIN\",jsonData.EIN);",
					"\t\tpm.environment.set(\"entity_Name\",jsonData.Entity_Name);",
					"\t\tpm.environment.set(\"zipCode\",jsonData.ZipCode);",
					"\t\tpm.environment.set(\"personId\",jsonData.PersonId);",
					"    }",
					"\t/*Function: getUnregisteredCommercialBookKeeperAccount",
					"\t  Created by: Velayutham Rajendran",
					"\t  Date: 09/22/2020",
					"\t  This function is to read unregistered Book Keeper commercial account test data from response body and update the environment variables. */",
					"\tvar getUnregisteredCommercialBookKeeperAccount = () => {",
					"\t\tvar jsonData = pm.response.json();",
					"\t\t//read response jsonData and update the environment variables",
					"\t\tpm.environment.set(\"accountNumber\", jsonData.ACCTNBR);",
					"\t\tpm.environment.set(\"entity_Name\",jsonData.ENTITY_NAME);",
					"\t\tpm.environment.set(\"DOB\",jsonData.DOB);",
					"\t\tpm.environment.set(\"personId\",jsonData.PERSONID);\t",
					"    }",
					"\t/*Function: createCommercialEmailID",
					"\t  Created by: Velayutham Rajendran",
					"\t  Date: 09/22/2020",
					"\t  This function is to create test/ dev email ids for registering commercial accounts*/",
					"\tvar createCommercialEmailID = () => {",
					"\t\tvar TodayDate = new Date();",
					"\t\tvar dd = String(TodayDate.getDate()).padStart(2, '0');",
					"\t\tvar mm = String(TodayDate.getMonth() + 1).padStart(2, '0'); ",
					"\t\tvar yyyy = TodayDate.getFullYear();",
					"\t\tvar h = TodayDate.getHours();",
					"\t\tvar m = TodayDate.getMinutes();",
					"\t\tvar s = TodayDate.getSeconds();",
					"\t\tTodayDate = mm+dd+yyyy+h+m+s;",
					"\t\tenv = pm.environment.get(\"graphQLEnv\");",
					"\t\tif (env == \"test\")",
					"\t\temailAddress = \"testcomm\"+TodayDate+\"@test.com\"",
					"\t\telse",
					"\t\temailAddress = \"testcomm\"+TodayDate+\"@dev.com\"",
					"\t\tpm.environment.set (\"emailAddress\", emailAddress);",
					"\t\t//Save email series in the global variables",
					"\t\tpm.globals.set(\"TodayDate \", TodayDate);",
					"\t}",
					"\t/*Function: getFirstNameLastName",
					"\t  Created by: Velayutham Rajendran",
					"\t  Date: 09/23/2020",
					"\t  This function is used to split the Entity Name from Database query output into first name and last name,",
					"\t  and set the environment keys for the same.",
					"\t*/",
					"\tvar getFirstNameLastName = () => {",
					"\t\tvar entity_Name = pm.environment.get(\"entity_Name\");",
					"\t\tvar fullname = entity_Name.split(\",\");",
					"\t\tvar lastname = fullname[0];",
					"\t\tvar firstname = fullname[1];",
					"\t\tlastname = lastname.trim();",
					"\t\tfirstname = firstname.trim();",
					"\t\tpm.environment.set(\"lastname\", lastname);",
					"\t\tpm.environment.set(\"firstname\", firstname);",
					"\t}",
					"\t/*Function: getFirstMiddleAndLastName",
					"\t  Created by: Velayutham Rajendran",
					"\t  Date: 09/24/2020",
					"\t  This function is used to split the Entity Name from Database query output into first name middle name and last name,",
					"\t  and set the environment keys for the same.",
					"\t*/",
					"\tvar getFirstMiddleAndLastName = () => {",
					"\t\tvar entity_Name = pm.environment.get(\"entity_Name\");",
					"        var fullname = entity_Name.split(\",\");",
					"        var lastname = fullname[0];",
					"        var firstname = fullname[1];",
					"\t\tfirstname = firstname.trim();",
					"        var halfname = firstname.split(\" \");",
					"\t\tfirstname = halfname[0];",
					"        middlename = halfname[1];",
					"        lastname = lastname.trim();",
					"        firstname = firstname.trim();",
					"\t\t\tif (middlename == null) {",
					"\t\t\tmiddlename = \"\";",
					"\t\t\t}",
					"        pm.environment.set(\"lastname\", lastname);",
					"        pm.environment.set(\"firstname\", firstname);",
					"        pm.environment.set(\"middlename\", middlename);",
					"\t}",
					"",
					"/*Function: getUnregisteredResidentialAccount",
					"\t  Created by: Jahnavi",
					"\t  Date: 09/29/2020",
					"\t  This function is to read unregistered residential account test data from response body and update the environment variables. */",
					"    var getUnregisteredResidentialAccount = () => {",
					"        var jsonData = pm.response.json();",
					"\t\t//read response jsonData and update the environment variables",
					"\t\tpm.environment.set(\"accountNumber\", jsonData.AccountNumber);",
					"\t\tpm.environment.set(\"phoneNumber\",jsonData.PhoneNumber);",
					"\t\tpm.environment.set(\"SSN\",jsonData.Last4PID);",
					"\t\tpm.environment.set(\"personName\",jsonData.Name);",
					"\t\tpm.environment.set(\"zipCode\",jsonData.ZipCode);",
					"\t\tpm.environment.set(\"personId\",jsonData.PersonId);",
					"    }",
					"/*Function: createResidentialEmailID",
					"\t  Created by: Jahnavi",
					"\t  Date: 09/29/2020",
					"\t  This function is to create test/ dev email ids for registering Residential accounts*/",
					"\tvar createResidentialEmailID = () => {",
					"\t\tvar TodayDate = new Date();",
					"\t\tvar dd = String(TodayDate.getDate()).padStart(2, '0');",
					"\t\tvar mm = String(TodayDate.getMonth() + 1).padStart(2, '0'); ",
					"\t\tvar yyyy = TodayDate.getFullYear();",
					"\t\tvar h = TodayDate.getHours();",
					"\t\tvar m = TodayDate.getMinutes();",
					"\t\tvar s = TodayDate.getSeconds();",
					"\t\tTodayDate = mm+dd+yyyy+h+m+s;",
					"\t\tenv = pm.environment.get(\"graphQLEnv\");",
					"\t\tif (env == \"test\")",
					"\t\temailAddress = \"testres\"+TodayDate+\"@test.com\"",
					"\t\telse",
					"\t\temailAddress = \"testres\"+TodayDate+\"@dev.com\"",
					"\t\tpm.environment.set (\"emailAddress\", emailAddress);",
					"\t\t//Save email series in the global variables",
					"\t\tpm.globals.set(\"TodayDate\", TodayDate);",
					"\t}",
					"",
					"/*Function: initializeIterations",
					"\t  Created by: Jahnavi",
					"\t  Date: 10/01/2020",
					"\t  This function is to create test/ dev email ids for registering Residential accounts*/",
					"\tvar initializeIterations = () => {",
					"\t\tpm.environment.set(\"iteratorPR\",\"0\");",
					"                pm.environment.set(\"iteratorTest\",\"0\");",
					"",
					"}",
					"/*Function: getUnregisteredPIDwithMultipleRESAccounts",
					"\t  Created by: Jahnavi",
					"\t  Date: 10/13/2020",
					"\t  This function is to read unregistered residential PID with multiple accounts test data from response body and update the environment variables. */",
					"    var getUnregisteredPIDwithMultipleRESAccounts = () => {",
					"        var jsonData = pm.response.json();",
					"\t\t//read response jsonData and update the environment variables",
					"\t\tpm.environment.set(\"accountNumber\", jsonData.ACCOUNTNUMBER);",
					"\t\tpm.environment.set(\"phoneNumber\",jsonData.PHONENUMBER);",
					"\t\tpm.environment.set(\"personName\",jsonData.NAME);",
					"\t\tpm.environment.set(\"zipCode\",jsonData.ZIPCODE);",
					"\t\tpm.environment.set(\"personId\",jsonData.PERSONID);",
					"    }",
					"",
					"/*Function: getPDDIneligibleAccount",
					"\t  Created by: Jahnavi",
					"\t  Date: 10/23/2020",
					"\t  This function is to read PDD Ineligible Account test data from response body and update the environment variables. */",
					"    var getPDDIneligibleAccount = () => {",
					"        var jsonData = pm.response.json();",
					"\t\t//read response jsonData and update the environment variables",
					"\t\tpm.environment.set(\"accountNumber\", jsonData.ACCT_ID);",
					"\t\tpm.environment.set(\"SSN\",jsonData.LAST4SSN);",
					"\t\t",
					"    }",
					"/*Function: getAccountInfo",
					"\t  Created by: Jahnavi",
					"\t  Date: 10/23/2020",
					"\t  This function is to read Account Info data from response body and update the environment variables. */",
					"    var getAccountInfo = () => {",
					"        var jsonData = pm.response.json();",
					"\t\t//read response jsonData and update the environment variables",
					"\t\tencryptedPersonId = jsonData.data.getAccountInfo.encryptedPersonId;",
					"\t\tpm.environment.set(\"encryptedPersonId\", encryptedPersonId);",
					"\t\tencryptedAccountNumber = jsonData.data.getAccountInfo.groups[0].defaultAccount.encryptedAccountNumber",
					"\t\tpm.environment.set(\"encrypted_accountnumber\", encryptedAccountNumber);",
					"\t\taccountNumber = jsonData.data.getAccountInfo.groups[0].defaultAccount.accountNumber;",
					"\t\tpm.environment.set(\"accountNumber\",accountNumber);",
					"\t\t",
					"    }",
					"",
					"/*Function: getOutageDetails",
					"\t  Created by: Velayutham",
					"\t  Date: 11/03/2020",
					"\t  This function is to read Outage related data from response body and update the environment variables. */",
					"    var getOutageDetails = () => {",
					"        var jsonData = pm.response.json();",
					"\t\t//read response jsonData and update the environment variables",
					"\t\tencryptedPremiseId = jsonData.data.getOutageDetail.encryptedPremiseId;",
					"\t\tpm.environment.set(\"encryptedPremiseId\", encryptedPremiseId);",
					"\t\tregisteredPhone = jsonData.data.getOutageDetail.registeredPhone;",
					"\t\tpm.environment.set(\"registeredPhone\", registeredPhone);",
					"\t\tcallbackPhone = jsonData.data.getOutageDetail.callbackPhone;",
					"\t\tpm.environment.set(\"callbackPhone\", callbackPhone);",
					"\t\tencryptedEmailContactId = jsonData.data.getOutageDetail.restorePowerAlert.encryptedEmailContactId;",
					"\t\tpm.environment.set(\"encryptedEmailContactId\", encryptedEmailContactId);",
					"\t\tencryptedTextContactId = jsonData.data.getOutageDetail.restorePowerAlert.encryptedTextContactId;",
					"\t\tpm.environment.set(\"encryptedTextContactId\", encryptedTextContactId);",
					"\t\t",
					"    }",
					"",
					"\t//Package for returning the functions",
					"    return {",
					"        myPackage: {",
					"            getTestCaseName,",
					"            getUnregisteredCommercialAccount,",
					"\t    getUnregisteredCommercialBookKeeperAccount,",
					"\t    createCommercialEmailID,",
					"            getFirstNameLastName,",
					"            getFirstMiddleAndLastName,",
					"\t    getUnregisteredResidentialAccount,",
					"\t    createResidentialEmailID,",
					"\t    initializeIterations,",
					"\t    getUnregisteredPIDwithMultipleRESAccounts,",
					"\t    getPDDIneligibleAccount,",
					"\t    getAccountInfo,",
					"\t    getOutageDetails\t\t",
					"        }",
					"    };",
					"});",
					""
				]
			}
		},
		{
			"listen": "test",
			"script": {
				"id": "3706efe3-bc6b-4496-a2af-ab683eee4472",
				"type": "text/javascript",
				"exec": [
					""
				]
			}
		}
	],
	"protocolProfileBehavior": {}
}