{
	"id": "add8c867-16bd-46f7-8c55-29e8d07782c0",
	"values": [
		{
			"key": "resEmailSeries",
			"value": "0",
			"enabled": true
		},
		{
			"key": "commEmailSeries",
			"value": "0",
			"enabled": true
		},
		{
			"key": "serverIPAddress",
			"value": "10.80.2.186:8080",
			"enabled": true
		}
	],
	"name": "My Workspace Globals",
	"_postman_variable_scope": "globals",
	"_postman_exported_at": "2020-10-12T12:59:44.553Z",
	"_postman_exported_using": "Postman/7.28.0"
}